{
  "MessageInfo":[{
    "id": 1,
    "title": "Notifications",
    "icon": "fa fa-lg fa-bell-o",
    "msglist": [
        {
            "id": 11,
            "content": "Lorem ipsum dolor, sit amet consectetur adipisicing elit.",
            "time":"2017/11/16 13:16"
        },
        {
            "id": 12,
            "content": "Lorem ipsum dolor sit.",
            "time": "2017/11/16 13:28"
        }
    ],
    "actions": [
        {
            "link": "#",
            "class": "",
            "title": "Mark All as Read"
        }
    ],
    "link": {
        "url": "#",
        "title": "See all notifications"
    }
},
{
    "id": 13,
    "title": "Messages",
    "icon": "fa fa-lg fa-envelope-o",
    "msglist": [
        {
            "id": 11,
            "content": "Lorem ipsum dolor sit amet consectetur, adipisicing elit. Dolorum, perspiciatis?",
            "time": "2017/11/16 13:37"
        },
        {
            "id": 12,
            "content": "Lorem ipsum dolor sit.",
            "time": "2017/11/16 14:08"
        }
    ],
    "actions": [
        {
            "link": "#",
            "class": "",
            "title": "Mark All as Read"
        }
    ],
    "link": {
        "url": "#",
        "title": "See all messages"
    }
}
],
"ProfileInfo":{
    "name": "sharp-summit",
    "actions": [
        {
            "title": "Profile",
            "class": "",
            "icon": "fa fa-user",
            "url": "#"
        },
        {
            "title": "Settings",
            "class": "",
            "icon": "fa fa-cog",
            "url": "#"
        },
        {
            "title": "Sign out",
            "class": "signout",
            "icon": "fa fa-power-off",
            "url": "#"
        }
    ]
},
"MenuInfo": [
    {
        "id": 0,
        "title": "Dashboard",
        "icon": "fa fa-lg fa-home",
        "href": "/home",
        "expanded": false,
        "subMenu": []
    },
    {
        "id": 1,
        "title": "Components",
        "icon": "fa fa-lg fa-gear",
        "href": "#",
        "expanded": false,
        "subMenu": [
            {
                "id": 10,
                "title": "Mail",
                "icon": "",
                "href": "/components/mail",
                "expanded": false,
                "subMenu": []
            },
            {
                "id": 11,
                "title": "Timeline",
                "icon": "",
                "href": "/components/timeline",
                "expanded": false,
                "subMenu": []
            },
            {
                "id": 12,
                "title": "Tree View",
                "icon": "",
                "href": "#",
                "expanded": false,
                "subMenu": []
            }
        ]
    },
    {
        "id": 2,
        "title": "Charts",
        "icon": "fa fa-lg fa-bar-chart",
        "href": "#",
        "expanded": false,
        "subMenu": []
    },
    {
        "id": 3,
        "title": "UI Features",
        "icon": "fa fa-lg fa-laptop",
        "href": "#",
        "expanded": false,
        "subMenu": []
    },
    {
        "id": 4,
        "title": "Form Elements",
        "icon": "fa fa-lg fa-edit",
        "href": "#",
        "expanded": false,
        "subMenu": []
    },
    {
        "id": 5,
        "title": "Tables",
        "icon": "fa fa-lg fa-table",
        "href": "#",
        "expanded": false,
        "subMenu": []
    },
    {
        "id": 6,
        "title": "Maps",
        "icon": "fa fa-lg fa-map-marker",
        "href": "#",
        "expanded": false,
        "subMenu": []
    },
    {
        "id": 7,
        "title": "Pages",
        "icon": "fa fa-lg fa-file-o",
        "href": "#",
        "expanded": false,
        "subMenu": []
    },
    {
        "id": 8,
        "title": "Menu Level1",
        "icon": "fa fa-lg fa-ellipsis-h",
        "href": "#",
        "expanded": false,
        "subMenu": []
    }
]
}